{
  "project_info": {
    "project_number": "558249162023",
    "firebase_url": "https://cartas-c5ed8.firebaseio.com",
    "project_id": "cartas-c5ed8",
    "storage_bucket": "cartas-c5ed8.appspot.com"
  },
  "client": [
    {
      "client_info": {
        "mobilesdk_app_id": "1:558249162023:android:9257d0471f164c0a",
        "android_client_info": {
          "package_name": "pt.jcampos.cartas.cartas"
        }
      },
      "oauth_client": [
        {
          "client_id": "558249162023-m9e0gqqngqistca4c38p0ep8tpf7ftj6.apps.googleusercontent.com",
          "client_type": 1,
          "android_info": {
            "package_name": "pt.jcampos.cartas.cartas",
            "certificate_hash": "cd2d9b0b35ce29d914009492c73222f25bc83c19"
          }
        },
        {
          "client_id": "558249162023-jmnajc23d0qqaja7ljo91egu323c01a7.apps.googleusercontent.com",
          "client_type": 3
        }
      ],
      "api_key": [
        {
          "current_key": "AIzaSyCWqaq1xXYqdsaDAzR0AS10HB4gfRXtNHs"
        }
      ],
      "services": {
        "analytics_service": {
          "status": 1
        },
        "appinvite_service": {
          "status": 2,
          "other_platform_oauth_client": [
            {
              "client_id": "558249162023-jmnajc23d0qqaja7ljo91egu323c01a7.apps.googleusercontent.com",
              "client_type": 3
            }
          ]
        },
        "ads_service": {
          "status": 2
        }
      }
    }
  ],
  "configuration_version": "1"
}